EESchema Schematic File Version 2
LIBS:power
LIBS:device
LIBS:transistors
LIBS:conn
LIBS:linear
LIBS:regul
LIBS:74xx
LIBS:cmos4000
LIBS:adc-dac
LIBS:memory
LIBS:xilinx
LIBS:microcontrollers
LIBS:dsp
LIBS:microchip
LIBS:analog_switches
LIBS:motorola
LIBS:texas
LIBS:intel
LIBS:audio
LIBS:interface
LIBS:digital-audio
LIBS:philips
LIBS:display
LIBS:cypress
LIBS:siliconi
LIBS:opto
LIBS:atmel
LIBS:contrib
LIBS:valves
LIBS:sgen2-cache
LIBS:s_gen
LIBS:controller-cache
EELAYER 25 0
EELAYER END
$Descr A4 11693 8268
encoding utf-8
Sheet 3 4
Title ""
Date ""
Rev ""
Comp ""
Comment1 ""
Comment2 ""
Comment3 ""
Comment4 ""
$EndDescr
$Comp
L INA199A U14
U 1 1 56DC8F26
P 7100 2900
F 0 "U14" H 7350 2750 60  0000 C CNN
F 1 "INA199A" H 7450 3050 60  0000 C CNN
F 2 "TO_SOT_Packages_SMD:SC-70-6_Handsoldering" H 7100 2900 60  0001 C CNN
F 3 "" H 7100 2900 60  0000 C CNN
	1    7100 2900
	1    0    0    -1  
$EndComp
Wire Wire Line
	6650 3000 6500 3000
Wire Wire Line
	6500 2800 6650 2800
$Comp
L C C27
U 1 1 56DC9551
P 6850 2350
F 0 "C27" H 6875 2450 50  0000 L CNN
F 1 "100nF" H 6875 2250 50  0000 L CNN
F 2 "Capacitors_SMD:C_0603_HandSoldering" H 6888 2200 50  0001 C CNN
F 3 "" H 6850 2350 50  0000 C CNN
	1    6850 2350
	0    1    1    0   
$EndComp
Wire Wire Line
	7000 2350 7100 2350
Wire Wire Line
	7100 2300 7100 2550
Wire Wire Line
	6700 2350 6600 2350
Wire Wire Line
	6600 2350 6600 2450
Text HLabel 6500 2800 0    60   Input ~ 0
I3_in1
Text HLabel 6500 3000 0    60   Input ~ 0
I3_in2
Text HLabel 7250 2500 1    60   Input ~ 0
VRef
Wire Wire Line
	7250 2500 7250 2600
$Comp
L +3.3V #PWR054
U 1 1 56DC99D5
P 7100 2300
F 0 "#PWR054" H 7100 2150 50  0001 C CNN
F 1 "+3.3V" H 7100 2440 50  0000 C CNN
F 2 "" H 7100 2300 50  0000 C CNN
F 3 "" H 7100 2300 50  0000 C CNN
	1    7100 2300
	1    0    0    -1  
$EndComp
Connection ~ 7100 2350
$Comp
L C C29
U 1 1 56DC9CC9
P 8150 3100
F 0 "C29" H 8175 3200 50  0000 L CNN
F 1 "300nF" H 8175 3000 50  0000 L CNN
F 2 "Capacitors_SMD:C_0603_HandSoldering" H 8188 2950 30  0001 C CNN
F 3 "" H 8150 3100 60  0000 C CNN
	1    8150 3100
	1    0    0    -1  
$EndComp
$Comp
L R R28
U 1 1 56DC9CD0
P 7950 2900
F 0 "R28" V 8030 2900 50  0000 C CNN
F 1 "4R7" V 7950 2900 50  0000 C CNN
F 2 "Resistors_SMD:R_0603_HandSoldering" V 7880 2900 50  0001 C CNN
F 3 "" H 7950 2900 50  0000 C CNN
	1    7950 2900
	0    -1   -1   0   
$EndComp
Wire Wire Line
	8100 2900 8450 2900
Wire Wire Line
	8150 2900 8150 2950
Connection ~ 8150 2900
Text HLabel 8450 2900 2    60   Output ~ 0
I3
Wire Wire Line
	7800 2900 7700 2900
$Comp
L INA199A U15
U 1 1 56DC9ECF
P 7100 4400
F 0 "U15" H 7350 4250 60  0000 C CNN
F 1 "INA199A" H 7450 4550 60  0000 C CNN
F 2 "TO_SOT_Packages_SMD:SC-70-6_Handsoldering" H 7100 4400 60  0001 C CNN
F 3 "" H 7100 4400 60  0000 C CNN
	1    7100 4400
	1    0    0    -1  
$EndComp
Wire Wire Line
	6650 4500 6500 4500
Wire Wire Line
	6500 4300 6650 4300
$Comp
L C C28
U 1 1 56DC9EDD
P 6850 3850
F 0 "C28" H 6875 3950 50  0000 L CNN
F 1 "100nF" H 6875 3750 50  0000 L CNN
F 2 "Capacitors_SMD:C_0603_HandSoldering" H 6888 3700 50  0001 C CNN
F 3 "" H 6850 3850 50  0000 C CNN
	1    6850 3850
	0    1    1    0   
$EndComp
Wire Wire Line
	7000 3850 7100 3850
Wire Wire Line
	7100 3800 7100 4050
Wire Wire Line
	6700 3850 6600 3850
Wire Wire Line
	6600 3850 6600 3950
Text HLabel 6500 4300 0    60   Input ~ 0
I4_in1
Text HLabel 6500 4500 0    60   Input ~ 0
I4_in2
Text HLabel 7250 4000 1    60   Input ~ 0
VRef
Wire Wire Line
	7250 4000 7250 4100
$Comp
L +3.3V #PWR055
U 1 1 56DC9EF1
P 7100 3800
F 0 "#PWR055" H 7100 3650 50  0001 C CNN
F 1 "+3.3V" H 7100 3940 50  0000 C CNN
F 2 "" H 7100 3800 50  0000 C CNN
F 3 "" H 7100 3800 50  0000 C CNN
	1    7100 3800
	1    0    0    -1  
$EndComp
Connection ~ 7100 3850
$Comp
L C C30
U 1 1 56DC9EF8
P 8150 4600
F 0 "C30" H 8175 4700 50  0000 L CNN
F 1 "300nF" H 8175 4500 50  0000 L CNN
F 2 "Capacitors_SMD:C_0603_HandSoldering" H 8188 4450 30  0001 C CNN
F 3 "" H 8150 4600 60  0000 C CNN
	1    8150 4600
	1    0    0    -1  
$EndComp
$Comp
L R R29
U 1 1 56DC9EFE
P 7950 4400
F 0 "R29" V 8030 4400 50  0000 C CNN
F 1 "4R7" V 7950 4400 50  0000 C CNN
F 2 "Resistors_SMD:R_0603_HandSoldering" V 7880 4400 50  0001 C CNN
F 3 "" H 7950 4400 50  0000 C CNN
	1    7950 4400
	0    -1   -1   0   
$EndComp
Wire Wire Line
	8100 4400 8450 4400
Wire Wire Line
	8150 4400 8150 4450
Connection ~ 8150 4400
Text HLabel 8450 4400 2    60   Output ~ 0
I4
Wire Wire Line
	7800 4400 7700 4400
$Comp
L INA199A U12
U 1 1 56DCA43F
P 3950 2900
F 0 "U12" H 4200 2750 60  0000 C CNN
F 1 "INA199A" H 4300 3050 60  0000 C CNN
F 2 "TO_SOT_Packages_SMD:SC-70-6_Handsoldering" H 3950 2900 60  0001 C CNN
F 3 "" H 3950 2900 60  0000 C CNN
	1    3950 2900
	1    0    0    -1  
$EndComp
Wire Wire Line
	3500 3000 3350 3000
Wire Wire Line
	3350 2800 3500 2800
$Comp
L C C23
U 1 1 56DCA44D
P 3700 2350
F 0 "C23" H 3725 2450 50  0000 L CNN
F 1 "100nF" H 3725 2250 50  0000 L CNN
F 2 "Capacitors_SMD:C_0603_HandSoldering" H 3738 2200 50  0001 C CNN
F 3 "" H 3700 2350 50  0000 C CNN
	1    3700 2350
	0    1    1    0   
$EndComp
Wire Wire Line
	3850 2350 3950 2350
Wire Wire Line
	3950 2300 3950 2550
Wire Wire Line
	3550 2350 3450 2350
Wire Wire Line
	3450 2350 3450 2450
Text HLabel 3350 2800 0    60   Input ~ 0
I1_in1
Text HLabel 3350 3000 0    60   Input ~ 0
I1_in2
Text HLabel 4100 2500 1    60   Input ~ 0
VRef
Wire Wire Line
	4100 2500 4100 2600
$Comp
L +3.3V #PWR056
U 1 1 56DCA461
P 3950 2300
F 0 "#PWR056" H 3950 2150 50  0001 C CNN
F 1 "+3.3V" H 3950 2440 50  0000 C CNN
F 2 "" H 3950 2300 50  0000 C CNN
F 3 "" H 3950 2300 50  0000 C CNN
	1    3950 2300
	1    0    0    -1  
$EndComp
Connection ~ 3950 2350
$Comp
L C C25
U 1 1 56DCA468
P 5000 3100
F 0 "C25" H 5025 3200 50  0000 L CNN
F 1 "300nF" H 5025 3000 50  0000 L CNN
F 2 "Capacitors_SMD:C_0603_HandSoldering" H 5038 2950 30  0001 C CNN
F 3 "" H 5000 3100 60  0000 C CNN
	1    5000 3100
	1    0    0    -1  
$EndComp
$Comp
L R R26
U 1 1 56DCA46E
P 4800 2900
F 0 "R26" V 4880 2900 50  0000 C CNN
F 1 "4R7" V 4800 2900 50  0000 C CNN
F 2 "Resistors_SMD:R_0603_HandSoldering" V 4730 2900 50  0001 C CNN
F 3 "" H 4800 2900 50  0000 C CNN
	1    4800 2900
	0    -1   -1   0   
$EndComp
Wire Wire Line
	4950 2900 5300 2900
Wire Wire Line
	5000 2900 5000 2950
Connection ~ 5000 2900
Text HLabel 5300 2900 2    60   Output ~ 0
I1
Wire Wire Line
	4650 2900 4550 2900
$Comp
L INA199A U13
U 1 1 56DCA47F
P 3950 4400
F 0 "U13" H 4200 4250 60  0000 C CNN
F 1 "INA199A" H 4300 4550 60  0000 C CNN
F 2 "TO_SOT_Packages_SMD:SC-70-6_Handsoldering" H 3950 4400 60  0001 C CNN
F 3 "" H 3950 4400 60  0000 C CNN
	1    3950 4400
	1    0    0    -1  
$EndComp
Wire Wire Line
	3500 4500 3350 4500
Wire Wire Line
	3350 4300 3500 4300
$Comp
L C C24
U 1 1 56DCA48D
P 3700 3850
F 0 "C24" H 3725 3950 50  0000 L CNN
F 1 "100nF" H 3725 3750 50  0000 L CNN
F 2 "Capacitors_SMD:C_0603_HandSoldering" H 3738 3700 50  0001 C CNN
F 3 "" H 3700 3850 50  0000 C CNN
	1    3700 3850
	0    1    1    0   
$EndComp
Wire Wire Line
	3850 3850 3950 3850
Wire Wire Line
	3950 3800 3950 4050
Wire Wire Line
	3550 3850 3450 3850
Wire Wire Line
	3450 3850 3450 3950
Text HLabel 3350 4300 0    60   Input ~ 0
I2_in1
Text HLabel 3350 4500 0    60   Input ~ 0
I2_in2
Text HLabel 4100 4000 1    60   Input ~ 0
VRef
Wire Wire Line
	4100 4000 4100 4100
$Comp
L +3.3V #PWR057
U 1 1 56DCA4A1
P 3950 3800
F 0 "#PWR057" H 3950 3650 50  0001 C CNN
F 1 "+3.3V" H 3950 3940 50  0000 C CNN
F 2 "" H 3950 3800 50  0000 C CNN
F 3 "" H 3950 3800 50  0000 C CNN
	1    3950 3800
	1    0    0    -1  
$EndComp
Connection ~ 3950 3850
$Comp
L C C26
U 1 1 56DCA4A8
P 5000 4600
F 0 "C26" H 5025 4700 50  0000 L CNN
F 1 "300nF" H 5025 4500 50  0000 L CNN
F 2 "Capacitors_SMD:C_0603_HandSoldering" H 5038 4450 30  0001 C CNN
F 3 "" H 5000 4600 60  0000 C CNN
	1    5000 4600
	1    0    0    -1  
$EndComp
$Comp
L R R27
U 1 1 56DCA4AE
P 4800 4400
F 0 "R27" V 4880 4400 50  0000 C CNN
F 1 "4R7" V 4800 4400 50  0000 C CNN
F 2 "Resistors_SMD:R_0603_HandSoldering" V 4730 4400 50  0001 C CNN
F 3 "" H 4800 4400 50  0000 C CNN
	1    4800 4400
	0    -1   -1   0   
$EndComp
Wire Wire Line
	4950 4400 5300 4400
Wire Wire Line
	5000 4400 5000 4450
Connection ~ 5000 4400
Text HLabel 5300 4400 2    60   Output ~ 0
I2
Wire Wire Line
	4650 4400 4550 4400
Text Notes 7400 7500 0    60   ~ 0
Conditioning circuit for current measurement
Text Notes 4700 2550 0    60   ~ 0
Low-pass\nat around 100 kHz
Text Notes 7800 2550 0    60   ~ 0
Low-pass\nat around 100 kHz
$Comp
L GND #PWR058
U 1 1 572EBE6D
P 3950 3250
F 0 "#PWR058" H 3950 3000 50  0001 C CNN
F 1 "GND" H 3950 3100 50  0000 C CNN
F 2 "" H 3950 3250 50  0000 C CNN
F 3 "" H 3950 3250 50  0000 C CNN
	1    3950 3250
	1    0    0    -1  
$EndComp
$Comp
L GND #PWR059
U 1 1 572EBEAF
P 5000 3250
F 0 "#PWR059" H 5000 3000 50  0001 C CNN
F 1 "GND" H 5000 3100 50  0000 C CNN
F 2 "" H 5000 3250 50  0000 C CNN
F 3 "" H 5000 3250 50  0000 C CNN
	1    5000 3250
	1    0    0    -1  
$EndComp
$Comp
L GND #PWR060
U 1 1 572EBF24
P 3450 2450
F 0 "#PWR060" H 3450 2200 50  0001 C CNN
F 1 "GND" H 3450 2300 50  0000 C CNN
F 2 "" H 3450 2450 50  0000 C CNN
F 3 "" H 3450 2450 50  0000 C CNN
	1    3450 2450
	1    0    0    -1  
$EndComp
$Comp
L GND #PWR061
U 1 1 572EBF70
P 3450 3950
F 0 "#PWR061" H 3450 3700 50  0001 C CNN
F 1 "GND" H 3450 3800 50  0000 C CNN
F 2 "" H 3450 3950 50  0000 C CNN
F 3 "" H 3450 3950 50  0000 C CNN
	1    3450 3950
	1    0    0    -1  
$EndComp
$Comp
L GND #PWR062
U 1 1 572EBFCD
P 6600 2450
F 0 "#PWR062" H 6600 2200 50  0001 C CNN
F 1 "GND" H 6600 2300 50  0000 C CNN
F 2 "" H 6600 2450 50  0000 C CNN
F 3 "" H 6600 2450 50  0000 C CNN
	1    6600 2450
	1    0    0    -1  
$EndComp
$Comp
L GND #PWR063
U 1 1 572EC008
P 6600 3950
F 0 "#PWR063" H 6600 3700 50  0001 C CNN
F 1 "GND" H 6600 3800 50  0000 C CNN
F 2 "" H 6600 3950 50  0000 C CNN
F 3 "" H 6600 3950 50  0000 C CNN
	1    6600 3950
	1    0    0    -1  
$EndComp
$Comp
L GND #PWR064
U 1 1 572EC189
P 3950 4750
F 0 "#PWR064" H 3950 4500 50  0001 C CNN
F 1 "GND" H 3950 4600 50  0000 C CNN
F 2 "" H 3950 4750 50  0000 C CNN
F 3 "" H 3950 4750 50  0000 C CNN
	1    3950 4750
	1    0    0    -1  
$EndComp
$Comp
L GND #PWR065
U 1 1 572EC1C4
P 5000 4750
F 0 "#PWR065" H 5000 4500 50  0001 C CNN
F 1 "GND" H 5000 4600 50  0000 C CNN
F 2 "" H 5000 4750 50  0000 C CNN
F 3 "" H 5000 4750 50  0000 C CNN
	1    5000 4750
	1    0    0    -1  
$EndComp
$Comp
L GND #PWR066
U 1 1 572EC325
P 7100 4750
F 0 "#PWR066" H 7100 4500 50  0001 C CNN
F 1 "GND" H 7100 4600 50  0000 C CNN
F 2 "" H 7100 4750 50  0000 C CNN
F 3 "" H 7100 4750 50  0000 C CNN
	1    7100 4750
	1    0    0    -1  
$EndComp
$Comp
L GND #PWR067
U 1 1 572EC360
P 8150 4750
F 0 "#PWR067" H 8150 4500 50  0001 C CNN
F 1 "GND" H 8150 4600 50  0000 C CNN
F 2 "" H 8150 4750 50  0000 C CNN
F 3 "" H 8150 4750 50  0000 C CNN
	1    8150 4750
	1    0    0    -1  
$EndComp
$Comp
L GND #PWR068
U 1 1 572EC535
P 7100 3250
F 0 "#PWR068" H 7100 3000 50  0001 C CNN
F 1 "GND" H 7100 3100 50  0000 C CNN
F 2 "" H 7100 3250 50  0000 C CNN
F 3 "" H 7100 3250 50  0000 C CNN
	1    7100 3250
	1    0    0    -1  
$EndComp
$Comp
L GND #PWR069
U 1 1 572EC570
P 8150 3250
F 0 "#PWR069" H 8150 3000 50  0001 C CNN
F 1 "GND" H 8150 3100 50  0000 C CNN
F 2 "" H 8150 3250 50  0000 C CNN
F 3 "" H 8150 3250 50  0000 C CNN
	1    8150 3250
	1    0    0    -1  
$EndComp
$EndSCHEMATC
