EESchema Schematic File Version 2
LIBS:power
LIBS:device
LIBS:transistors
LIBS:conn
LIBS:linear
LIBS:regul
LIBS:74xx
LIBS:cmos4000
LIBS:adc-dac
LIBS:memory
LIBS:xilinx
LIBS:microcontrollers
LIBS:dsp
LIBS:microchip
LIBS:analog_switches
LIBS:motorola
LIBS:texas
LIBS:intel
LIBS:audio
LIBS:interface
LIBS:digital-audio
LIBS:philips
LIBS:display
LIBS:cypress
LIBS:siliconi
LIBS:opto
LIBS:atmel
LIBS:contrib
LIBS:valves
LIBS:sgen2-cache
LIBS:s_gen
LIBS:controller-cache
EELAYER 25 0
EELAYER END
$Descr A4 11693 8268
encoding utf-8
Sheet 4 4
Title ""
Date ""
Rev ""
Comp ""
Comment1 ""
Comment2 ""
Comment3 ""
Comment4 ""
$EndDescr
$Comp
L LM2904DT U16
U 1 1 56E65B01
P 5450 2100
F 0 "U16" H 5650 2000 60  0000 C CNN
F 1 "LM2904DT" H 5800 2200 60  0000 C CNN
F 2 "Housings_SOIC:SOIC-8_3.9x4.9mm_Pitch1.27mm" H 5450 2400 60  0001 C CNN
F 3 "" H 5450 2400 60  0000 C CNN
	1    5450 2100
	1    0    0    -1  
$EndComp
$Comp
L C C31
U 1 1 56E65B16
P 5800 1350
F 0 "C31" H 5825 1450 50  0000 L CNN
F 1 "100nF" H 5825 1250 50  0000 L CNN
F 2 "Capacitors_SMD:C_0603_HandSoldering" H 5838 1200 30  0001 C CNN
F 3 "" H 5800 1350 60  0000 C CNN
	1    5800 1350
	1    0    0    -1  
$EndComp
$Comp
L R R30
U 1 1 56E65B2A
P 4650 1500
F 0 "R30" V 4730 1500 50  0000 C CNN
F 1 "1k" V 4650 1500 50  0000 C CNN
F 2 "Resistors_SMD:R_0603_HandSoldering" V 4580 1500 50  0001 C CNN
F 3 "" H 4650 1500 50  0000 C CNN
	1    4650 1500
	1    0    0    -1  
$EndComp
Text HLabel 6750 2250 2    60   Input ~ 0
T1_in2
$Comp
L R R36
U 1 1 56E66293
P 6650 1350
F 0 "R36" V 6730 1350 50  0000 C CNN
F 1 "100R" V 6650 1350 50  0000 C CNN
F 2 "Resistors_SMD:R_0603_HandSoldering" V 6580 1350 50  0001 C CNN
F 3 "" H 6650 1350 50  0000 C CNN
	1    6650 1350
	1    0    0    -1  
$EndComp
Text HLabel 6750 2150 2    60   Input ~ 0
T1_in1
$Comp
L R R34
U 1 1 5726C640
P 6200 1800
F 0 "R34" V 6280 1800 50  0000 C CNN
F 1 "100R" V 6200 1800 50  0000 C CNN
F 2 "Resistors_SMD:R_0603_HandSoldering" V 6130 1800 50  0001 C CNN
F 3 "" H 6200 1800 50  0000 C CNN
	1    6200 1800
	0    -1   -1   0   
$EndComp
$Comp
L R R31
U 1 1 5726CF8D
P 4650 1900
F 0 "R31" V 4730 1900 50  0000 C CNN
F 1 "10k" V 4650 1900 50  0000 C CNN
F 2 "Resistors_SMD:R_0603_HandSoldering" V 4580 1900 50  0001 C CNN
F 3 "" H 4650 1900 50  0000 C CNN
	1    4650 1900
	1    0    0    -1  
$EndComp
$Comp
L +3.3V #PWR070
U 1 1 5726D199
P 4950 1150
F 0 "#PWR070" H 4950 1000 50  0001 C CNN
F 1 "+3.3V" H 4950 1290 50  0000 C CNN
F 2 "" H 4950 1150 50  0000 C CNN
F 3 "" H 4950 1150 50  0000 C CNN
	1    4950 1150
	1    0    0    -1  
$EndComp
Text HLabel 6750 2050 2    60   Output ~ 0
T1_out
Wire Wire Line
	5450 1200 5450 1450
Connection ~ 5450 1200
Wire Wire Line
	4650 1200 6650 1200
Wire Wire Line
	5450 2750 5450 2900
Wire Wire Line
	5000 1900 4950 1900
Wire Wire Line
	4950 1900 4950 2100
Wire Wire Line
	4950 2100 6400 2100
Wire Wire Line
	6650 1500 6650 1600
Wire Wire Line
	6400 2100 6400 1550
Wire Wire Line
	6400 1550 6650 1550
Connection ~ 6650 1550
Wire Wire Line
	4650 1650 4650 1750
Wire Wire Line
	4650 1700 5000 1700
Connection ~ 4650 1700
Wire Wire Line
	4950 1200 4950 1150
Wire Wire Line
	4650 1200 4650 1350
Connection ~ 4950 1200
Connection ~ 5800 1200
Wire Wire Line
	6650 2000 6650 2150
Wire Wire Line
	6650 2150 6750 2150
Wire Wire Line
	6750 2250 6650 2250
Wire Wire Line
	6650 2250 6650 2300
Wire Wire Line
	6750 2050 6650 2050
Connection ~ 6650 2050
$Comp
L R R38
U 1 1 5726DEC2
P 6800 2800
F 0 "R38" V 6880 2800 50  0000 C CNN
F 1 "100R" V 6800 2800 50  0000 C CNN
F 2 "Resistors_SMD:R_0603_HandSoldering" V 6730 2800 50  0001 C CNN
F 3 "" H 6800 2800 50  0000 C CNN
	1    6800 2800
	0    1    1    0   
$EndComp
Wire Wire Line
	6650 2800 6300 2800
Wire Wire Line
	6300 2800 6300 2400
Wire Wire Line
	6300 2400 6050 2400
$Comp
L R R40
U 1 1 5726E12D
P 7250 2350
F 0 "R40" V 7330 2350 50  0000 C CNN
F 1 "100R" V 7250 2350 50  0000 C CNN
F 2 "Resistors_SMD:R_0603_HandSoldering" V 7180 2350 50  0001 C CNN
F 3 "" H 7250 2350 50  0000 C CNN
	1    7250 2350
	1    0    0    -1  
$EndComp
$Comp
L +3.3V #PWR071
U 1 1 5726E1E4
P 7250 2200
F 0 "#PWR071" H 7250 2050 50  0001 C CNN
F 1 "+3.3V" H 7250 2340 50  0000 C CNN
F 2 "" H 7250 2200 50  0000 C CNN
F 3 "" H 7250 2200 50  0000 C CNN
	1    7250 2200
	1    0    0    -1  
$EndComp
Wire Wire Line
	7250 2500 7250 2600
Wire Wire Line
	7250 2550 6200 2550
Wire Wire Line
	6200 2550 6200 2850
Wire Wire Line
	6200 2850 4950 2850
Wire Wire Line
	4950 2850 4950 2500
Wire Wire Line
	4950 2500 5000 2500
Connection ~ 7250 2550
Wire Wire Line
	7250 3000 7250 3150
Wire Wire Line
	7250 3150 7350 3150
Text HLabel 7350 3150 2    60   Input ~ 0
T2_in1
Text HLabel 7350 3250 2    60   Input ~ 0
T2_in2
Wire Wire Line
	7350 3250 7250 3250
Wire Wire Line
	7250 3250 7250 3300
Text HLabel 7350 3050 2    60   Output ~ 0
T2_out
Wire Wire Line
	7350 3050 7250 3050
Connection ~ 7250 3050
Wire Wire Line
	5000 2300 4850 2300
Wire Wire Line
	4850 2300 4850 1700
Connection ~ 4850 1700
$Comp
L LM2904DT U17
U 1 1 5726EE1F
P 5450 4800
F 0 "U17" H 5650 4700 60  0000 C CNN
F 1 "LM2904DT" H 5800 4900 60  0000 C CNN
F 2 "Housings_SOIC:SOIC-8_3.9x4.9mm_Pitch1.27mm" H 5450 5100 60  0001 C CNN
F 3 "" H 5450 5100 60  0000 C CNN
	1    5450 4800
	1    0    0    -1  
$EndComp
$Comp
L C C32
U 1 1 5726EE25
P 5800 4050
F 0 "C32" H 5825 4150 50  0000 L CNN
F 1 "100nF" H 5825 3950 50  0000 L CNN
F 2 "Capacitors_SMD:C_0603_HandSoldering" H 5838 3900 30  0001 C CNN
F 3 "" H 5800 4050 60  0000 C CNN
	1    5800 4050
	1    0    0    -1  
$EndComp
$Comp
L R R32
U 1 1 5726EE31
P 4650 4200
F 0 "R32" V 4730 4200 50  0000 C CNN
F 1 "1k" V 4650 4200 50  0000 C CNN
F 2 "Resistors_SMD:R_0603_HandSoldering" V 4580 4200 50  0001 C CNN
F 3 "" H 4650 4200 50  0000 C CNN
	1    4650 4200
	1    0    0    -1  
$EndComp
Text HLabel 6750 4950 2    60   Input ~ 0
T3_in2
$Comp
L R R37
U 1 1 5726EE3E
P 6650 4050
F 0 "R37" V 6730 4050 50  0000 C CNN
F 1 "100R" V 6650 4050 50  0000 C CNN
F 2 "Resistors_SMD:R_0603_HandSoldering" V 6580 4050 50  0001 C CNN
F 3 "" H 6650 4050 50  0000 C CNN
	1    6650 4050
	1    0    0    -1  
$EndComp
Text HLabel 6750 4850 2    60   Input ~ 0
T3_in1
$Comp
L R R35
U 1 1 5726EE4B
P 6200 4500
F 0 "R35" V 6280 4500 50  0000 C CNN
F 1 "100R" V 6200 4500 50  0000 C CNN
F 2 "Resistors_SMD:R_0603_HandSoldering" V 6130 4500 50  0001 C CNN
F 3 "" H 6200 4500 50  0000 C CNN
	1    6200 4500
	0    -1   -1   0   
$EndComp
$Comp
L R R33
U 1 1 5726EE51
P 4650 4600
F 0 "R33" V 4730 4600 50  0000 C CNN
F 1 "10k" V 4650 4600 50  0000 C CNN
F 2 "Resistors_SMD:R_0603_HandSoldering" V 4580 4600 50  0001 C CNN
F 3 "" H 4650 4600 50  0000 C CNN
	1    4650 4600
	1    0    0    -1  
$EndComp
$Comp
L +3.3V #PWR073
U 1 1 5726EE57
P 4950 3800
F 0 "#PWR073" H 4950 3650 50  0001 C CNN
F 1 "+3.3V" H 4950 3940 50  0000 C CNN
F 2 "" H 4950 3800 50  0000 C CNN
F 3 "" H 4950 3800 50  0000 C CNN
	1    4950 3800
	1    0    0    -1  
$EndComp
Text HLabel 6750 4750 2    60   Output ~ 0
T3_out
Wire Wire Line
	5450 3900 5450 4150
Connection ~ 5450 3900
Wire Wire Line
	4650 3900 6650 3900
Wire Wire Line
	5450 5450 5450 5600
Wire Wire Line
	5000 4600 4950 4600
Wire Wire Line
	4950 4600 4950 4800
Wire Wire Line
	4950 4800 6400 4800
Wire Wire Line
	6650 4200 6650 4300
Wire Wire Line
	6400 4800 6400 4250
Wire Wire Line
	6400 4250 6650 4250
Connection ~ 6650 4250
Wire Wire Line
	4650 4350 4650 4450
Wire Wire Line
	4650 4400 5000 4400
Connection ~ 4650 4400
Wire Wire Line
	4650 3900 4650 4050
Connection ~ 5800 3900
Wire Wire Line
	6650 4700 6650 4850
Wire Wire Line
	6650 4850 6750 4850
Wire Wire Line
	6750 4950 6650 4950
Wire Wire Line
	6650 4950 6650 5000
Wire Wire Line
	6750 4750 6650 4750
Connection ~ 6650 4750
$Comp
L R R39
U 1 1 5726EE89
P 6800 5500
F 0 "R39" V 6880 5500 50  0000 C CNN
F 1 "100R" V 6800 5500 50  0000 C CNN
F 2 "Resistors_SMD:R_0603_HandSoldering" V 6730 5500 50  0001 C CNN
F 3 "" H 6800 5500 50  0000 C CNN
	1    6800 5500
	0    1    1    0   
$EndComp
Wire Wire Line
	6650 5500 6300 5500
Wire Wire Line
	6300 5500 6300 5100
Wire Wire Line
	6300 5100 6050 5100
$Comp
L R R41
U 1 1 5726EE98
P 7250 5050
F 0 "R41" V 7330 5050 50  0000 C CNN
F 1 "100R" V 7250 5050 50  0000 C CNN
F 2 "Resistors_SMD:R_0603_HandSoldering" V 7180 5050 50  0001 C CNN
F 3 "" H 7250 5050 50  0000 C CNN
	1    7250 5050
	1    0    0    -1  
$EndComp
$Comp
L +3.3V #PWR074
U 1 1 5726EE9E
P 7250 4900
F 0 "#PWR074" H 7250 4750 50  0001 C CNN
F 1 "+3.3V" H 7250 5040 50  0000 C CNN
F 2 "" H 7250 4900 50  0000 C CNN
F 3 "" H 7250 4900 50  0000 C CNN
	1    7250 4900
	1    0    0    -1  
$EndComp
Wire Wire Line
	7250 5200 7250 5300
Wire Wire Line
	7250 5250 6200 5250
Wire Wire Line
	6200 5250 6200 5550
Wire Wire Line
	6200 5550 4950 5550
Wire Wire Line
	4950 5550 4950 5200
Wire Wire Line
	4950 5200 5000 5200
Connection ~ 7250 5250
Wire Wire Line
	7250 5700 7250 5850
Wire Wire Line
	7250 5850 7350 5850
Text HLabel 7350 5850 2    60   Input ~ 0
T4_in1
Text HLabel 7350 5950 2    60   Input ~ 0
T4_in2
Wire Wire Line
	7350 5950 7250 5950
Wire Wire Line
	7250 5950 7250 6000
Text HLabel 7350 5750 2    60   Output ~ 0
T4_out
Wire Wire Line
	7350 5750 7250 5750
Connection ~ 7250 5750
Wire Wire Line
	5000 5000 4850 5000
Wire Wire Line
	4850 5000 4850 4400
Connection ~ 4850 4400
Text Notes 6750 800  2    60   ~ 0
Constant current sources for NTC thermistors.
Wire Wire Line
	4950 3800 4950 3900
Connection ~ 4950 3900
$Comp
L MMBT3906 Q1
U 1 1 57264C1C
P 6550 1800
F 0 "Q1" H 6750 1875 50  0000 L CNN
F 1 "MMBT4403LT1G" H 6750 1800 50  0000 L CNN
F 2 "TO_SOT_Packages_SMD:SOT-23_Handsoldering" H 6750 1725 50  0001 L CIN
F 3 "" H 6550 1800 50  0000 L CNN
	1    6550 1800
	1    0    0    -1  
$EndComp
$Comp
L MMBT3906 Q3
U 1 1 57264EF3
P 7150 2800
F 0 "Q3" H 7350 2875 50  0000 L CNN
F 1 "MMBT4403LT1G" H 7350 2800 50  0000 L CNN
F 2 "TO_SOT_Packages_SMD:SOT-23_Handsoldering" H 7350 2725 50  0001 L CIN
F 3 "" H 7150 2800 50  0000 L CNN
	1    7150 2800
	1    0    0    -1  
$EndComp
$Comp
L MMBT3906 Q2
U 1 1 57266871
P 6550 4500
F 0 "Q2" H 6750 4575 50  0000 L CNN
F 1 "MMBT4403LT1G" H 6750 4500 50  0000 L CNN
F 2 "TO_SOT_Packages_SMD:SOT-23_Handsoldering" H 6750 4425 50  0001 L CIN
F 3 "" H 6550 4500 50  0000 L CNN
	1    6550 4500
	1    0    0    -1  
$EndComp
$Comp
L MMBT3906 Q4
U 1 1 57266B5E
P 7150 5500
F 0 "Q4" H 7350 5575 50  0000 L CNN
F 1 "MMBT4403LT1G" H 7350 5500 50  0000 L CNN
F 2 "TO_SOT_Packages_SMD:SOT-23_Handsoldering" H 7350 5425 50  0001 L CIN
F 3 "" H 7150 5500 50  0000 L CNN
	1    7150 5500
	1    0    0    -1  
$EndComp
$Comp
L GND #PWR075
U 1 1 572ECD12
P 4650 2050
F 0 "#PWR075" H 4650 1800 50  0001 C CNN
F 1 "GND" H 4650 1900 50  0000 C CNN
F 2 "" H 4650 2050 50  0000 C CNN
F 3 "" H 4650 2050 50  0000 C CNN
	1    4650 2050
	1    0    0    -1  
$EndComp
$Comp
L GND #PWR076
U 1 1 572ECDB0
P 5800 1500
F 0 "#PWR076" H 5800 1250 50  0001 C CNN
F 1 "GND" H 5800 1350 50  0000 C CNN
F 2 "" H 5800 1500 50  0000 C CNN
F 3 "" H 5800 1500 50  0000 C CNN
	1    5800 1500
	1    0    0    -1  
$EndComp
$Comp
L GND #PWR077
U 1 1 572ECDF7
P 5450 2900
F 0 "#PWR077" H 5450 2650 50  0001 C CNN
F 1 "GND" H 5450 2750 50  0000 C CNN
F 2 "" H 5450 2900 50  0000 C CNN
F 3 "" H 5450 2900 50  0000 C CNN
	1    5450 2900
	1    0    0    -1  
$EndComp
$Comp
L GND #PWR078
U 1 1 572ECE3E
P 6650 2300
F 0 "#PWR078" H 6650 2050 50  0001 C CNN
F 1 "GND" H 6650 2150 50  0000 C CNN
F 2 "" H 6650 2300 50  0000 C CNN
F 3 "" H 6650 2300 50  0000 C CNN
	1    6650 2300
	1    0    0    -1  
$EndComp
$Comp
L GND #PWR079
U 1 1 572ECF25
P 7250 3300
F 0 "#PWR079" H 7250 3050 50  0001 C CNN
F 1 "GND" H 7250 3150 50  0000 C CNN
F 2 "" H 7250 3300 50  0000 C CNN
F 3 "" H 7250 3300 50  0000 C CNN
	1    7250 3300
	1    0    0    -1  
$EndComp
$Comp
L GND #PWR080
U 1 1 572ED332
P 6650 5000
F 0 "#PWR080" H 6650 4750 50  0001 C CNN
F 1 "GND" H 6650 4850 50  0000 C CNN
F 2 "" H 6650 5000 50  0000 C CNN
F 3 "" H 6650 5000 50  0000 C CNN
	1    6650 5000
	1    0    0    -1  
$EndComp
$Comp
L GND #PWR081
U 1 1 572ED469
P 5450 5600
F 0 "#PWR081" H 5450 5350 50  0001 C CNN
F 1 "GND" H 5450 5450 50  0000 C CNN
F 2 "" H 5450 5600 50  0000 C CNN
F 3 "" H 5450 5600 50  0000 C CNN
	1    5450 5600
	1    0    0    -1  
$EndComp
$Comp
L GND #PWR082
U 1 1 572ED4B0
P 4650 4750
F 0 "#PWR082" H 4650 4500 50  0001 C CNN
F 1 "GND" H 4650 4600 50  0000 C CNN
F 2 "" H 4650 4750 50  0000 C CNN
F 3 "" H 4650 4750 50  0000 C CNN
	1    4650 4750
	1    0    0    -1  
$EndComp
$Comp
L GND #PWR083
U 1 1 572ED4F7
P 7250 6000
F 0 "#PWR083" H 7250 5750 50  0001 C CNN
F 1 "GND" H 7250 5850 50  0000 C CNN
F 2 "" H 7250 6000 50  0000 C CNN
F 3 "" H 7250 6000 50  0000 C CNN
	1    7250 6000
	1    0    0    -1  
$EndComp
$Comp
L GND #PWR?
U 1 1 572F24F8
P 5800 4200
F 0 "#PWR?" H 5800 3950 50  0001 C CNN
F 1 "GND" H 5800 4050 50  0000 C CNN
F 2 "" H 5800 4200 50  0000 C CNN
F 3 "" H 5800 4200 50  0000 C CNN
	1    5800 4200
	1    0    0    -1  
$EndComp
$EndSCHEMATC
