EESchema Schematic File Version 2
LIBS:power
LIBS:device
LIBS:transistors
LIBS:conn
LIBS:linear
LIBS:regul
LIBS:74xx
LIBS:cmos4000
LIBS:adc-dac
LIBS:memory
LIBS:xilinx
LIBS:microcontrollers
LIBS:dsp
LIBS:microchip
LIBS:analog_switches
LIBS:motorola
LIBS:texas
LIBS:intel
LIBS:audio
LIBS:interface
LIBS:digital-audio
LIBS:philips
LIBS:display
LIBS:cypress
LIBS:siliconi
LIBS:opto
LIBS:atmel
LIBS:contrib
LIBS:valves
LIBS:sgen2-cache
LIBS:s_gen
LIBS:controller-cache
EELAYER 25 0
EELAYER END
$Descr A4 11693 8268
encoding utf-8
Sheet 2 4
Title ""
Date ""
Rev ""
Comp ""
Comment1 ""
Comment2 ""
Comment3 ""
Comment4 ""
$EndDescr
$Comp
L LM2904DT U8
U 1 1 56DBA3C4
P 4200 2550
F 0 "U8" H 4400 2450 60  0000 C CNN
F 1 "LM2904DT" H 4550 2650 60  0000 C CNN
F 2 "Housings_SOIC:SOIC-8_3.9x4.9mm_Pitch1.27mm" H 4200 2850 60  0001 C CNN
F 3 "" H 4200 2850 60  0000 C CNN
	1    4200 2550
	1    0    0    -1  
$EndComp
$Comp
L R R2
U 1 1 56DBA3CB
P 2800 2150
F 0 "R2" V 2880 2150 50  0000 C CNN
F 1 "100k" V 2800 2150 50  0000 C CNN
F 2 "Resistors_SMD:R_0603_HandSoldering" V 2730 2150 50  0001 C CNN
F 3 "" H 2800 2150 50  0000 C CNN
	1    2800 2150
	0    -1   -1   0   
$EndComp
$Comp
L R R8
U 1 1 56DBA3D2
P 3700 1950
F 0 "R8" V 3780 1950 50  0000 C CNN
F 1 "100k" V 3700 1950 50  0000 C CNN
F 2 "Resistors_SMD:R_0603_HandSoldering" V 3630 1950 50  0001 C CNN
F 3 "" H 3700 1950 50  0000 C CNN
	1    3700 1950
	1    0    0    -1  
$EndComp
$Comp
L C C15
U 1 1 56DBA3D9
P 4550 1800
F 0 "C15" H 4575 1900 50  0000 L CNN
F 1 "100nF" H 4575 1700 50  0000 L CNN
F 2 "Capacitors_SMD:C_0603_HandSoldering" H 4588 1650 30  0001 C CNN
F 3 "" H 4550 1800 60  0000 C CNN
	1    4550 1800
	1    0    0    -1  
$EndComp
$Comp
L R R10
U 1 1 56DBA3E6
P 4950 2550
F 0 "R10" V 5030 2550 50  0000 C CNN
F 1 "10k" V 4950 2550 50  0000 C CNN
F 2 "Resistors_SMD:R_0603_HandSoldering" V 4880 2550 50  0001 C CNN
F 3 "" H 4950 2550 50  0000 C CNN
	1    4950 2550
	0    -1   -1   0   
$EndComp
$Comp
L R R14
U 1 1 56DBA3ED
P 5350 2250
F 0 "R14" V 5430 2250 50  0000 C CNN
F 1 "75k" V 5350 2250 50  0000 C CNN
F 2 "Resistors_SMD:R_0603_HandSoldering" V 5280 2250 50  0001 C CNN
F 3 "" H 5350 2250 50  0000 C CNN
	1    5350 2250
	0    -1   -1   0   
$EndComp
$Comp
L R R18
U 1 1 56DBA3F4
P 5600 2450
F 0 "R18" V 5680 2450 50  0000 C CNN
F 1 "27k" V 5600 2450 50  0000 C CNN
F 2 "Resistors_SMD:R_0603_HandSoldering" V 5530 2450 50  0001 C CNN
F 3 "" H 5600 2450 50  0000 C CNN
	1    5600 2450
	1    0    0    -1  
$EndComp
$Comp
L LM2904DT U10
U 1 1 56DBA401
P 6400 2550
F 0 "U10" H 6600 2450 60  0000 C CNN
F 1 "LM2904DT" H 6750 2650 60  0000 C CNN
F 2 "Housings_SOIC:SOIC-8_3.9x4.9mm_Pitch1.27mm" H 6400 2850 60  0001 C CNN
F 3 "" H 6400 2850 60  0000 C CNN
	1    6400 2550
	1    0    0    -1  
$EndComp
$Comp
L C C17
U 1 1 56DBA408
P 6750 1800
F 0 "C17" H 6775 1900 50  0000 L CNN
F 1 "100nF" H 6775 1700 50  0000 L CNN
F 2 "Capacitors_SMD:C_0603_HandSoldering" H 6788 1650 30  0001 C CNN
F 3 "" H 6750 1800 60  0000 C CNN
	1    6750 1800
	1    0    0    -1  
$EndComp
Text Notes 3850 1400 0    60   ~ 0
Convert 12 V bipolar signal\ninto 12 V positive signal.
Text Notes 5050 1900 0    60   ~ 0
Voltage divider\nfrom 12 V to 3 V.
Text Notes 6100 1400 0    60   ~ 0
Unity gain buffer\nto reduce impedance.
$Comp
L +12V #PWR028
U 1 1 56DBA437
P 3700 1650
F 0 "#PWR028" H 3700 1500 50  0001 C CNN
F 1 "+12V" H 3700 1790 50  0000 C CNN
F 2 "" H 3700 1650 50  0000 C CNN
F 3 "" H 3700 1650 50  0000 C CNN
	1    3700 1650
	1    0    0    -1  
$EndComp
$Comp
L +12V #PWR029
U 1 1 56DBA43D
P 6400 1650
F 0 "#PWR029" H 6400 1500 50  0001 C CNN
F 1 "+12V" H 6400 1790 50  0000 C CNN
F 2 "" H 6400 1650 50  0000 C CNN
F 3 "" H 6400 1650 50  0000 C CNN
	1    6400 1650
	1    0    0    -1  
$EndComp
$Comp
L R R6
U 1 1 56DBA443
P 3550 2550
F 0 "R6" V 3630 2550 50  0000 C CNN
F 1 "100k" V 3550 2550 50  0000 C CNN
F 2 "Resistors_SMD:R_0603_HandSoldering" V 3480 2550 50  0001 C CNN
F 3 "" H 3550 2550 50  0000 C CNN
	1    3550 2550
	1    0    0    -1  
$EndComp
$Comp
L R R3
U 1 1 56DBA44D
P 2800 2750
F 0 "R3" V 2880 2750 50  0000 C CNN
F 1 "100k" V 2800 2750 50  0000 C CNN
F 2 "Resistors_SMD:R_0603_HandSoldering" V 2730 2750 50  0001 C CNN
F 3 "" H 2800 2750 50  0000 C CNN
	1    2800 2750
	0    -1   -1   0   
$EndComp
$Comp
L R R11
U 1 1 56DBA455
P 4950 3300
F 0 "R11" V 5030 3300 50  0000 C CNN
F 1 "10k" V 4950 3300 50  0000 C CNN
F 2 "Resistors_SMD:R_0603_HandSoldering" V 4880 3300 50  0001 C CNN
F 3 "" H 4950 3300 50  0000 C CNN
	1    4950 3300
	0    -1   -1   0   
$EndComp
$Comp
L R R15
U 1 1 56DBA463
P 5350 2850
F 0 "R15" V 5430 2850 50  0000 C CNN
F 1 "75k" V 5350 2850 50  0000 C CNN
F 2 "Resistors_SMD:R_0603_HandSoldering" V 5280 2850 50  0001 C CNN
F 3 "" H 5350 2850 50  0000 C CNN
	1    5350 2850
	0    -1   -1   0   
$EndComp
$Comp
L +12V #PWR030
U 1 1 56DBA46D
P 3550 2400
F 0 "#PWR030" H 3550 2250 50  0001 C CNN
F 1 "+12V" H 3550 2540 50  0000 C CNN
F 2 "" H 3550 2400 50  0000 C CNN
F 3 "" H 3550 2400 50  0000 C CNN
	1    3550 2400
	1    0    0    -1  
$EndComp
$Comp
L R R19
U 1 1 56DBA473
P 5600 3000
F 0 "R19" V 5680 3000 50  0000 C CNN
F 1 "27k" V 5600 3000 50  0000 C CNN
F 2 "Resistors_SMD:R_0603_HandSoldering" V 5530 3000 50  0001 C CNN
F 3 "" H 5600 3000 50  0000 C CNN
	1    5600 3000
	1    0    0    -1  
$EndComp
$Comp
L LM2904DT U9
U 1 1 56DBA49B
P 4200 4800
F 0 "U9" H 4400 4700 60  0000 C CNN
F 1 "LM2904DT" H 4550 4900 60  0000 C CNN
F 2 "Housings_SOIC:SOIC-8_3.9x4.9mm_Pitch1.27mm" H 4200 5100 60  0001 C CNN
F 3 "" H 4200 5100 60  0000 C CNN
	1    4200 4800
	1    0    0    -1  
$EndComp
$Comp
L R R4
U 1 1 56DBA4A2
P 2800 4400
F 0 "R4" V 2880 4400 50  0000 C CNN
F 1 "100k" V 2800 4400 50  0000 C CNN
F 2 "Resistors_SMD:R_0603_HandSoldering" V 2730 4400 50  0001 C CNN
F 3 "" H 2800 4400 50  0000 C CNN
	1    2800 4400
	0    -1   -1   0   
$EndComp
$Comp
L R R9
U 1 1 56DBA4A9
P 3700 4200
F 0 "R9" V 3780 4200 50  0000 C CNN
F 1 "100k" V 3700 4200 50  0000 C CNN
F 2 "Resistors_SMD:R_0603_HandSoldering" V 3630 4200 50  0001 C CNN
F 3 "" H 3700 4200 50  0000 C CNN
	1    3700 4200
	1    0    0    -1  
$EndComp
$Comp
L C C16
U 1 1 56DBA4B0
P 4550 4050
F 0 "C16" H 4575 4150 50  0000 L CNN
F 1 "100nF" H 4575 3950 50  0000 L CNN
F 2 "Capacitors_SMD:C_0603_HandSoldering" H 4588 3900 30  0001 C CNN
F 3 "" H 4550 4050 60  0000 C CNN
	1    4550 4050
	1    0    0    -1  
$EndComp
$Comp
L R R12
U 1 1 56DBA4BD
P 4950 4800
F 0 "R12" V 5030 4800 50  0000 C CNN
F 1 "10k" V 4950 4800 50  0000 C CNN
F 2 "Resistors_SMD:R_0603_HandSoldering" V 4880 4800 50  0001 C CNN
F 3 "" H 4950 4800 50  0000 C CNN
	1    4950 4800
	0    -1   -1   0   
$EndComp
$Comp
L R R16
U 1 1 56DBA4C4
P 5350 4500
F 0 "R16" V 5430 4500 50  0000 C CNN
F 1 "75k" V 5350 4500 50  0000 C CNN
F 2 "Resistors_SMD:R_0603_HandSoldering" V 5280 4500 50  0001 C CNN
F 3 "" H 5350 4500 50  0000 C CNN
	1    5350 4500
	0    -1   -1   0   
$EndComp
$Comp
L R R20
U 1 1 56DBA4CB
P 5600 4700
F 0 "R20" V 5680 4700 50  0000 C CNN
F 1 "27k" V 5600 4700 50  0000 C CNN
F 2 "Resistors_SMD:R_0603_HandSoldering" V 5530 4700 50  0001 C CNN
F 3 "" H 5600 4700 50  0000 C CNN
	1    5600 4700
	1    0    0    -1  
$EndComp
$Comp
L LM2904DT U11
U 1 1 56DBA4D8
P 6400 4800
F 0 "U11" H 6600 4700 60  0000 C CNN
F 1 "LM2904DT" H 6750 4900 60  0000 C CNN
F 2 "Housings_SOIC:SOIC-8_3.9x4.9mm_Pitch1.27mm" H 6400 5100 60  0001 C CNN
F 3 "" H 6400 5100 60  0000 C CNN
	1    6400 4800
	1    0    0    -1  
$EndComp
$Comp
L C C18
U 1 1 56DBA4DF
P 6750 4050
F 0 "C18" H 6775 4150 50  0000 L CNN
F 1 "100nF" H 6775 3950 50  0000 L CNN
F 2 "Capacitors_SMD:C_0603_HandSoldering" H 6788 3900 30  0001 C CNN
F 3 "" H 6750 4050 60  0000 C CNN
	1    6750 4050
	1    0    0    -1  
$EndComp
$Comp
L +12V #PWR031
U 1 1 56DBA50A
P 3700 3900
F 0 "#PWR031" H 3700 3750 50  0001 C CNN
F 1 "+12V" H 3700 4040 50  0000 C CNN
F 2 "" H 3700 3900 50  0000 C CNN
F 3 "" H 3700 3900 50  0000 C CNN
	1    3700 3900
	1    0    0    -1  
$EndComp
$Comp
L +12V #PWR032
U 1 1 56DBA510
P 6400 3900
F 0 "#PWR032" H 6400 3750 50  0001 C CNN
F 1 "+12V" H 6400 4040 50  0000 C CNN
F 2 "" H 6400 3900 50  0000 C CNN
F 3 "" H 6400 3900 50  0000 C CNN
	1    6400 3900
	1    0    0    -1  
$EndComp
$Comp
L R R7
U 1 1 56DBA516
P 3550 4800
F 0 "R7" V 3630 4800 50  0000 C CNN
F 1 "100k" V 3550 4800 50  0000 C CNN
F 2 "Resistors_SMD:R_0603_HandSoldering" V 3480 4800 50  0001 C CNN
F 3 "" H 3550 4800 50  0000 C CNN
	1    3550 4800
	1    0    0    -1  
$EndComp
$Comp
L R R5
U 1 1 56DBA520
P 2800 5000
F 0 "R5" V 2880 5000 50  0000 C CNN
F 1 "100k" V 2800 5000 50  0000 C CNN
F 2 "Resistors_SMD:R_0603_HandSoldering" V 2730 5000 50  0001 C CNN
F 3 "" H 2800 5000 50  0000 C CNN
	1    2800 5000
	0    -1   -1   0   
$EndComp
$Comp
L R R13
U 1 1 56DBA528
P 4950 5550
F 0 "R13" V 5030 5550 50  0000 C CNN
F 1 "10k" V 4950 5550 50  0000 C CNN
F 2 "Resistors_SMD:R_0603_HandSoldering" V 4880 5550 50  0001 C CNN
F 3 "" H 4950 5550 50  0000 C CNN
	1    4950 5550
	0    -1   -1   0   
$EndComp
$Comp
L R R17
U 1 1 56DBA536
P 5350 5100
F 0 "R17" V 5430 5100 50  0000 C CNN
F 1 "75k" V 5350 5100 50  0000 C CNN
F 2 "Resistors_SMD:R_0603_HandSoldering" V 5280 5100 50  0001 C CNN
F 3 "" H 5350 5100 50  0000 C CNN
	1    5350 5100
	0    -1   -1   0   
$EndComp
$Comp
L +12V #PWR033
U 1 1 56DBA540
P 3550 4650
F 0 "#PWR033" H 3550 4500 50  0001 C CNN
F 1 "+12V" H 3550 4790 50  0000 C CNN
F 2 "" H 3550 4650 50  0000 C CNN
F 3 "" H 3550 4650 50  0000 C CNN
	1    3550 4650
	1    0    0    -1  
$EndComp
$Comp
L R R21
U 1 1 56DBA546
P 5600 5250
F 0 "R21" V 5680 5250 50  0000 C CNN
F 1 "27k" V 5600 5250 50  0000 C CNN
F 2 "Resistors_SMD:R_0603_HandSoldering" V 5530 5250 50  0001 C CNN
F 3 "" H 5600 5250 50  0000 C CNN
	1    5600 5250
	1    0    0    -1  
$EndComp
$Comp
L C C20
U 1 1 56DBAEF9
P 7650 3050
F 0 "C20" H 7675 3150 50  0000 L CNN
F 1 "300nF" H 7675 2950 50  0000 L CNN
F 2 "Capacitors_SMD:C_0603_HandSoldering" H 7688 2900 30  0001 C CNN
F 3 "" H 7650 3050 60  0000 C CNN
	1    7650 3050
	1    0    0    -1  
$EndComp
$Comp
L C C22
U 1 1 56DBAF00
P 7650 5300
F 0 "C22" H 7675 5400 50  0000 L CNN
F 1 "300nF" H 7675 5200 50  0000 L CNN
F 2 "Capacitors_SMD:C_0603_HandSoldering" H 7688 5150 30  0001 C CNN
F 3 "" H 7650 5300 60  0000 C CNN
	1    7650 5300
	1    0    0    -1  
$EndComp
$Comp
L C C19
U 1 1 56DBAF07
P 7650 2450
F 0 "C19" H 7675 2550 50  0000 L CNN
F 1 "300nF" H 7675 2350 50  0000 L CNN
F 2 "Capacitors_SMD:C_0603_HandSoldering" H 7688 2300 30  0001 C CNN
F 3 "" H 7650 2450 60  0000 C CNN
	1    7650 2450
	1    0    0    -1  
$EndComp
$Comp
L R R25
U 1 1 56DBAF14
P 7450 5100
F 0 "R25" V 7530 5100 50  0000 C CNN
F 1 "4R7" V 7450 5100 50  0000 C CNN
F 2 "Resistors_SMD:R_0603_HandSoldering" V 7380 5100 50  0001 C CNN
F 3 "" H 7450 5100 50  0000 C CNN
	1    7450 5100
	0    1    -1   0   
$EndComp
$Comp
L R R24
U 1 1 56DBAF1B
P 7450 4500
F 0 "R24" V 7530 4500 50  0000 C CNN
F 1 "4R7" V 7450 4500 50  0000 C CNN
F 2 "Resistors_SMD:R_0603_HandSoldering" V 7380 4500 50  0001 C CNN
F 3 "" H 7450 4500 50  0000 C CNN
	1    7450 4500
	0    -1   -1   0   
$EndComp
$Comp
L R R23
U 1 1 56DBAF22
P 7450 2850
F 0 "R23" V 7530 2850 50  0000 C CNN
F 1 "4R7" V 7450 2850 50  0000 C CNN
F 2 "Resistors_SMD:R_0603_HandSoldering" V 7380 2850 50  0001 C CNN
F 3 "" H 7450 2850 50  0000 C CNN
	1    7450 2850
	0    -1   -1   0   
$EndComp
$Comp
L R R22
U 1 1 56DBAF29
P 7450 2250
F 0 "R22" V 7530 2250 50  0000 C CNN
F 1 "4R7" V 7450 2250 50  0000 C CNN
F 2 "Resistors_SMD:R_0603_HandSoldering" V 7380 2250 50  0001 C CNN
F 3 "" H 7450 2250 50  0000 C CNN
	1    7450 2250
	0    -1   -1   0   
$EndComp
Text Notes 7250 1900 0    60   ~ 0
Impedance match\nand low-pass\nat around 100 kHz
Text Notes 9550 7500 2    60   ~ 0
Conditioning circuit for voltage measurements.
$Comp
L C C21
U 1 1 56DBD6FF
P 7650 4700
F 0 "C21" H 7675 4800 50  0000 L CNN
F 1 "300nF" H 7675 4600 50  0000 L CNN
F 2 "Capacitors_SMD:C_0603_HandSoldering" H 7688 4550 30  0001 C CNN
F 3 "" H 7650 4700 60  0000 C CNN
	1    7650 4700
	1    0    0    -1  
$EndComp
Wire Wire Line
	2950 2150 3750 2150
Wire Wire Line
	3700 2100 3700 2150
Connection ~ 3700 2150
Wire Wire Line
	4200 1650 4200 1900
Wire Wire Line
	3700 1650 3700 1800
Connection ~ 4200 1650
Wire Wire Line
	4800 2550 3700 2550
Wire Wire Line
	3700 2550 3700 2350
Wire Wire Line
	3700 2350 3750 2350
Wire Wire Line
	5100 2550 5150 2550
Wire Wire Line
	5150 2550 5150 2250
Wire Wire Line
	4800 2250 5200 2250
Connection ~ 5150 2250
Wire Wire Line
	5500 2250 5850 2250
Wire Wire Line
	5600 2250 5600 2300
Wire Wire Line
	5950 2350 5850 2350
Wire Wire Line
	5850 2350 5850 2550
Wire Wire Line
	5850 2550 7100 2550
Wire Wire Line
	7000 2250 7300 2250
Connection ~ 5600 2250
Wire Wire Line
	6750 1650 6400 1650
Wire Wire Line
	6400 1650 6400 1900
Wire Wire Line
	5950 2150 5850 2150
Wire Wire Line
	5850 2150 5850 2250
Connection ~ 7100 2250
Wire Wire Line
	3550 2700 3550 2750
Wire Wire Line
	2950 2750 3750 2750
Connection ~ 3550 2750
Wire Wire Line
	4800 3300 3700 3300
Wire Wire Line
	3700 3300 3700 2950
Wire Wire Line
	3700 2950 3750 2950
Wire Wire Line
	4800 2850 5200 2850
Wire Wire Line
	5150 2850 5150 3300
Wire Wire Line
	5150 3300 5100 3300
Connection ~ 5150 2850
Wire Wire Line
	3700 1650 4550 1650
Wire Wire Line
	5500 2850 5850 2850
Wire Wire Line
	5850 2850 5850 2750
Wire Wire Line
	5850 2750 5950 2750
Connection ~ 5600 2850
Wire Wire Line
	5950 2950 5850 2950
Wire Wire Line
	5850 2950 5850 3300
Wire Wire Line
	5850 3300 7200 3300
Wire Wire Line
	7000 2850 7300 2850
Connection ~ 7200 2850
Wire Wire Line
	4200 3200 4200 3350
Wire Wire Line
	6400 3200 6400 3350
Wire Wire Line
	2950 4400 3750 4400
Wire Wire Line
	3700 4350 3700 4400
Connection ~ 3700 4400
Wire Wire Line
	4200 3900 4200 4150
Wire Wire Line
	3700 3900 3700 4050
Connection ~ 4200 3900
Wire Wire Line
	4800 4800 3700 4800
Wire Wire Line
	3700 4800 3700 4600
Wire Wire Line
	3700 4600 3750 4600
Wire Wire Line
	5100 4800 5150 4800
Wire Wire Line
	5150 4800 5150 4500
Wire Wire Line
	4800 4500 5200 4500
Connection ~ 5150 4500
Wire Wire Line
	5500 4500 5850 4500
Wire Wire Line
	5600 4500 5600 4550
Wire Wire Line
	5950 4600 5850 4600
Wire Wire Line
	5850 4600 5850 4800
Wire Wire Line
	5850 4800 7100 4800
Wire Wire Line
	7000 4500 7300 4500
Connection ~ 5600 4500
Wire Wire Line
	6750 3900 6400 3900
Wire Wire Line
	6400 3900 6400 4150
Wire Wire Line
	5950 4400 5850 4400
Wire Wire Line
	5850 4400 5850 4500
Connection ~ 7100 4500
Wire Wire Line
	3550 4950 3550 5000
Wire Wire Line
	2950 5000 3750 5000
Connection ~ 3550 5000
Wire Wire Line
	4800 5550 3700 5550
Wire Wire Line
	3700 5550 3700 5200
Wire Wire Line
	3700 5200 3750 5200
Wire Wire Line
	4800 5100 5200 5100
Wire Wire Line
	5150 5100 5150 5550
Wire Wire Line
	5150 5550 5100 5550
Connection ~ 5150 5100
Wire Wire Line
	3700 3900 4550 3900
Wire Wire Line
	5500 5100 5850 5100
Wire Wire Line
	5850 5100 5850 5000
Wire Wire Line
	5850 5000 5950 5000
Connection ~ 5600 5100
Wire Wire Line
	5950 5200 5850 5200
Wire Wire Line
	5850 5200 5850 5700
Wire Wire Line
	5850 5700 7200 5700
Wire Wire Line
	7200 5700 7200 5100
Wire Wire Line
	7000 5100 7300 5100
Connection ~ 7200 5100
Wire Wire Line
	4200 5450 4200 5600
Wire Wire Line
	7600 5100 7950 5100
Wire Wire Line
	7650 5100 7650 5150
Connection ~ 7650 5100
Wire Wire Line
	7100 4800 7100 4500
Wire Wire Line
	7600 4500 7950 4500
Wire Wire Line
	7650 4500 7650 4550
Connection ~ 7650 4500
Wire Wire Line
	7200 3300 7200 2850
Wire Wire Line
	7600 2850 7950 2850
Wire Wire Line
	7650 2850 7650 2900
Wire Wire Line
	7100 2550 7100 2250
Wire Wire Line
	7600 2250 7950 2250
Wire Wire Line
	7650 2250 7650 2300
Connection ~ 7650 2850
Connection ~ 7650 2250
Text HLabel 7950 2250 2    60   Output ~ 0
V1
Text HLabel 7950 2850 2    60   Output ~ 0
V2
Text HLabel 7950 4500 2    60   Output ~ 0
V3
Text HLabel 7950 5100 2    60   Output ~ 0
V4
Text HLabel 2650 2150 0    60   Input ~ 0
V1_in
Text HLabel 2650 2750 0    60   Input ~ 0
V2_in
Text HLabel 2650 4400 0    60   Input ~ 0
V3_in
Text HLabel 2650 5000 0    60   Input ~ 0
V4_in
$Comp
L C C11
U 1 1 56E61307
P 3000 2350
F 0 "C11" H 3025 2450 50  0000 L CNN
F 1 "16pF" H 3025 2250 50  0000 L CNN
F 2 "Capacitors_SMD:C_0603_HandSoldering" H 3038 2200 30  0001 C CNN
F 3 "" H 3000 2350 60  0000 C CNN
	1    3000 2350
	1    0    0    -1  
$EndComp
$Comp
L C C12
U 1 1 56E61453
P 3000 2950
F 0 "C12" H 3025 3050 50  0000 L CNN
F 1 "16pF" H 3025 2850 50  0000 L CNN
F 2 "Capacitors_SMD:C_0603_HandSoldering" H 3038 2800 30  0001 C CNN
F 3 "" H 3000 2950 60  0000 C CNN
	1    3000 2950
	1    0    0    -1  
$EndComp
Wire Wire Line
	3000 2200 3000 2150
Connection ~ 3000 2150
Wire Wire Line
	3000 2800 3000 2750
Connection ~ 3000 2750
$Comp
L C C13
U 1 1 56E61D62
P 3000 4600
F 0 "C13" H 3025 4700 50  0000 L CNN
F 1 "16pF" H 3025 4500 50  0000 L CNN
F 2 "Capacitors_SMD:C_0603_HandSoldering" H 3038 4450 30  0001 C CNN
F 3 "" H 3000 4600 60  0000 C CNN
	1    3000 4600
	1    0    0    -1  
$EndComp
$Comp
L C C14
U 1 1 56E61E33
P 3000 5200
F 0 "C14" H 3025 5300 50  0000 L CNN
F 1 "16pF" H 3025 5100 50  0000 L CNN
F 2 "Capacitors_SMD:C_0603_HandSoldering" H 3038 5050 30  0001 C CNN
F 3 "" H 3000 5200 60  0000 C CNN
	1    3000 5200
	1    0    0    -1  
$EndComp
Wire Wire Line
	3000 5050 3000 5000
Connection ~ 3000 5000
Wire Wire Line
	3000 4450 3000 4400
Connection ~ 3000 4400
Text Notes 2400 1850 0    60   ~ 0
Low-pass\nat around 100 kHz
$Comp
L GND #PWR034
U 1 1 572E9C55
P 3000 3100
F 0 "#PWR034" H 3000 2850 50  0001 C CNN
F 1 "GND" H 3000 2950 50  0000 C CNN
F 2 "" H 3000 3100 50  0000 C CNN
F 3 "" H 3000 3100 50  0000 C CNN
	1    3000 3100
	1    0    0    -1  
$EndComp
$Comp
L GND #PWR035
U 1 1 572E9CDF
P 3000 2500
F 0 "#PWR035" H 3000 2250 50  0001 C CNN
F 1 "GND" H 3000 2350 50  0000 C CNN
F 2 "" H 3000 2500 50  0000 C CNN
F 3 "" H 3000 2500 50  0000 C CNN
	1    3000 2500
	1    0    0    -1  
$EndComp
$Comp
L GND #PWR036
U 1 1 572E9D62
P 4200 3350
F 0 "#PWR036" H 4200 3100 50  0001 C CNN
F 1 "GND" H 4200 3200 50  0000 C CNN
F 2 "" H 4200 3350 50  0000 C CNN
F 3 "" H 4200 3350 50  0000 C CNN
	1    4200 3350
	1    0    0    -1  
$EndComp
$Comp
L GND #PWR037
U 1 1 572E9DE5
P 5600 3150
F 0 "#PWR037" H 5600 2900 50  0001 C CNN
F 1 "GND" H 5600 3000 50  0000 C CNN
F 2 "" H 5600 3150 50  0000 C CNN
F 3 "" H 5600 3150 50  0000 C CNN
	1    5600 3150
	1    0    0    -1  
$EndComp
$Comp
L GND #PWR038
U 1 1 572E9E68
P 5600 2600
F 0 "#PWR038" H 5600 2350 50  0001 C CNN
F 1 "GND" H 5600 2450 50  0000 C CNN
F 2 "" H 5600 2600 50  0000 C CNN
F 3 "" H 5600 2600 50  0000 C CNN
	1    5600 2600
	1    0    0    -1  
$EndComp
$Comp
L GND #PWR039
U 1 1 572E9EEB
P 6400 3350
F 0 "#PWR039" H 6400 3100 50  0001 C CNN
F 1 "GND" H 6400 3200 50  0000 C CNN
F 2 "" H 6400 3350 50  0000 C CNN
F 3 "" H 6400 3350 50  0000 C CNN
	1    6400 3350
	1    0    0    -1  
$EndComp
$Comp
L GND #PWR040
U 1 1 572EA0D9
P 4550 1950
F 0 "#PWR040" H 4550 1700 50  0001 C CNN
F 1 "GND" H 4550 1800 50  0000 C CNN
F 2 "" H 4550 1950 50  0000 C CNN
F 3 "" H 4550 1950 50  0000 C CNN
	1    4550 1950
	1    0    0    -1  
$EndComp
$Comp
L GND #PWR041
U 1 1 572EA369
P 6750 1950
F 0 "#PWR041" H 6750 1700 50  0001 C CNN
F 1 "GND" H 6750 1800 50  0000 C CNN
F 2 "" H 6750 1950 50  0000 C CNN
F 3 "" H 6750 1950 50  0000 C CNN
	1    6750 1950
	1    0    0    -1  
$EndComp
$Comp
L GND #PWR042
U 1 1 572EA629
P 7650 2600
F 0 "#PWR042" H 7650 2350 50  0001 C CNN
F 1 "GND" H 7650 2450 50  0000 C CNN
F 2 "" H 7650 2600 50  0000 C CNN
F 3 "" H 7650 2600 50  0000 C CNN
	1    7650 2600
	1    0    0    -1  
$EndComp
$Comp
L GND #PWR043
U 1 1 572EA6AC
P 7650 3200
F 0 "#PWR043" H 7650 2950 50  0001 C CNN
F 1 "GND" H 7650 3050 50  0000 C CNN
F 2 "" H 7650 3200 50  0000 C CNN
F 3 "" H 7650 3200 50  0000 C CNN
	1    7650 3200
	1    0    0    -1  
$EndComp
$Comp
L GND #PWR044
U 1 1 572EAF5B
P 7650 4850
F 0 "#PWR044" H 7650 4600 50  0001 C CNN
F 1 "GND" H 7650 4700 50  0000 C CNN
F 2 "" H 7650 4850 50  0000 C CNN
F 3 "" H 7650 4850 50  0000 C CNN
	1    7650 4850
	1    0    0    -1  
$EndComp
$Comp
L GND #PWR045
U 1 1 572EAFDE
P 7650 5450
F 0 "#PWR045" H 7650 5200 50  0001 C CNN
F 1 "GND" H 7650 5300 50  0000 C CNN
F 2 "" H 7650 5450 50  0000 C CNN
F 3 "" H 7650 5450 50  0000 C CNN
	1    7650 5450
	1    0    0    -1  
$EndComp
$Comp
L GND #PWR046
U 1 1 572EB061
P 6400 5450
F 0 "#PWR046" H 6400 5200 50  0001 C CNN
F 1 "GND" H 6400 5300 50  0000 C CNN
F 2 "" H 6400 5450 50  0000 C CNN
F 3 "" H 6400 5450 50  0000 C CNN
	1    6400 5450
	1    0    0    -1  
$EndComp
$Comp
L GND #PWR047
U 1 1 572EB0E4
P 6750 4200
F 0 "#PWR047" H 6750 3950 50  0001 C CNN
F 1 "GND" H 6750 4050 50  0000 C CNN
F 2 "" H 6750 4200 50  0000 C CNN
F 3 "" H 6750 4200 50  0000 C CNN
	1    6750 4200
	1    0    0    -1  
$EndComp
$Comp
L GND #PWR048
U 1 1 572EB1BD
P 5600 5400
F 0 "#PWR048" H 5600 5150 50  0001 C CNN
F 1 "GND" H 5600 5250 50  0000 C CNN
F 2 "" H 5600 5400 50  0000 C CNN
F 3 "" H 5600 5400 50  0000 C CNN
	1    5600 5400
	1    0    0    -1  
$EndComp
$Comp
L GND #PWR049
U 1 1 572EB240
P 5600 4850
F 0 "#PWR049" H 5600 4600 50  0001 C CNN
F 1 "GND" H 5600 4700 50  0000 C CNN
F 2 "" H 5600 4850 50  0000 C CNN
F 3 "" H 5600 4850 50  0000 C CNN
	1    5600 4850
	1    0    0    -1  
$EndComp
$Comp
L GND #PWR050
U 1 1 572EB54D
P 4550 4200
F 0 "#PWR050" H 4550 3950 50  0001 C CNN
F 1 "GND" H 4550 4050 50  0000 C CNN
F 2 "" H 4550 4200 50  0000 C CNN
F 3 "" H 4550 4200 50  0000 C CNN
	1    4550 4200
	1    0    0    -1  
$EndComp
$Comp
L GND #PWR051
U 1 1 572EB650
P 4200 5600
F 0 "#PWR051" H 4200 5350 50  0001 C CNN
F 1 "GND" H 4200 5450 50  0000 C CNN
F 2 "" H 4200 5600 50  0000 C CNN
F 3 "" H 4200 5600 50  0000 C CNN
	1    4200 5600
	1    0    0    -1  
$EndComp
$Comp
L GND #PWR052
U 1 1 572EB6D3
P 3000 5350
F 0 "#PWR052" H 3000 5100 50  0001 C CNN
F 1 "GND" H 3000 5200 50  0000 C CNN
F 2 "" H 3000 5350 50  0000 C CNN
F 3 "" H 3000 5350 50  0000 C CNN
	1    3000 5350
	1    0    0    -1  
$EndComp
$Comp
L GND #PWR053
U 1 1 572EB756
P 3000 4750
F 0 "#PWR053" H 3000 4500 50  0001 C CNN
F 1 "GND" H 3000 4600 50  0000 C CNN
F 2 "" H 3000 4750 50  0000 C CNN
F 3 "" H 3000 4750 50  0000 C CNN
	1    3000 4750
	1    0    0    -1  
$EndComp
$EndSCHEMATC
